Patry	Hostplant	Sex	Body_length	Ovipositor_length	Wing_length	Wing_width	Wing_area	Melanized_area	Melanization_ratio	Baltic
Sympatry	Heterophyllum	Male	3.94	NA	4.455026455	1.873015873	6.630721424	3.710758377	55.96311683	East
Sympatry	Heterophyllum	Female	4.48	1.65	4.71	2.17	8.3428	5.3308	63.89701299	East
Sympatry	Heterophyllum	Male	4.61	NA	4.990196078	2.294117647	9.179546328	5.73923491	62.52198861	East
Sympatry	Heterophyllum	Female	5.31	1.78	5.611650485	2.582524272	11.51380903	7.06692431	61.37781416	East
Sympatry	Heterophyllum	Male	4.51	NA	4.46875	2.09375	7.638780382	4.755642361	62.25656614	East
Sympatry	Heterophyllum	Male	4.74	NA	4.90625	2.333333333	9.034179688	5.19140625	57.46405794	East
Sympatry	Heterophyllum	Male	4.66	NA	4.712871287	2.267326733	8.58072738	5.890010783	68.64232509	East
Sympatry	Heterophyllum	Male	4.72	NA	4.882352941	2.245098039	8.860053825	5.743367935	64.82317205	East
Sympatry	Heterophyllum	Female	5.03	1.87	5.352941176	2.529411765	10.90292195	6.684352172	61.3078971	East
Sympatry	Heterophyllum	Male	4.52	NA	4.298969072	2.134020619	7.466255713	4.172388139	55.88327402	East
Sympatry	Heterophyllum	Male	4.54	NA	4.715789474	2.136842105	7.900831025	4.507479224	57.05069771	East
Sympatry	Heterophyllum	Female	4.77	1.94	5.208333333	2.395833333	9.889648438	5.422851563	54.83361311	East
Sympatry	Heterophyllum	Male	4.61	NA	4.855721393	2.208955224	8.658696567	5.549664612	64.09353382	East
Sympatry	Heterophyllum	Female	4.66	1.77	4.882352941	2.382352941	9.215301807	6.014417532	65.26555134	East
Sympatry	Heterophyllum	Male	5.11	NA	5.404040404	2.464646465	10.69390878	6.601265177	61.72920781	East
Sympatry	Heterophyllum	Female	4.67	NA	4.949494949	2.191919192	8.866238139	5.736353433	64.69884232	East
Sympatry	Heterophyllum	Female	4.81	1.83	5.113300493	2.600985222	10.66776675	6.859472445	64.30092264	East
Sympatry	Heterophyllum	Female	4.85	1.84	5	2.346534653	9.484756396	6.283501617	66.24842384	East
Sympatry	Heterophyllum	Male	4.01	NA	4.45631068	2.067961165	7.506645301	4.99547554	66.54737688	East
Sympatry	Heterophyllum	Female	5.08	1.95	5.494949495	2.535353535	11.34506683	7.142128354	62.95360319	East
Sympatry	Heterophyllum	Male	5.1	NA	4.770833333	2.354166667	8.987304688	5.325195313	59.25241769	East
Sympatry	Heterophyllum	Male	4.74	NA	5.063157895	2.210526316	8.890083102	5.115235457	57.53866863	East
Sympatry	Heterophyllum	Female	4.97	1.87	5.484536082	2.463917526	10.78573706	5.63588054	52.25308672	East
Sympatry	Heterophyllum	Male	4.49	NA	4.59	2.2	8.2584	5.4281	65.72822823	East
Sympatry	Heterophyllum	Female	4.69	1.91	4.921568627	2.31372549	9.132160707	5.833237216	63.87576175	East
Sympatry	Heterophyllum	Male	4.5	NA	4.676923077	2.287179487	8.638316897	4.607389875	53.33666188	East
Sympatry	Heterophyllum	Female	4.85	1.9	5.208333333	2.322916667	9.487087674	5.316948785	56.04405659	East
Sympatry	Heterophyllum	Male	4.3	NA	4.204081633	1.948979592	6.448979592	3.589129529	55.65422371	East
Sympatry	Heterophyllum	Male	4.79	NA	5.141414141	2.303030303	9.497602285	5.774920926	60.80398771	East
Sympatry	Heterophyllum	Male	4.53	NA	4.587064677	2.099502488	7.826241925	5.0857157	64.9828583	East
Sympatry	Heterophyllum	Female	3.97	1.55	4.07	1.82	6.1955	4.0784	65.82842386	East
Sympatry	Heterophyllum	Male	4.71	NA	4.881188119	2.267326733	8.913930007	5.976570924	67.04754154	East
Sympatry	Heterophyllum	Female	4.36	1.75	4.82	2.2	8.6747	5.342	61.58138034	East
Sympatry	Heterophyllum	Male	4.27	NA	5.105527638	2.301507538	9.25966516	5.713997121	61.70846378	East
Sympatry	Heterophyllum	Male	4.49	NA	4.845360825	2.175257732	8.460516527	5.012116059	59.24125369	East
Sympatry	Heterophyllum	Female	4.57	1.7	4.804123711	2.18556701	8.336486343	4.401211606	52.79456386	East
Sympatry	Heterophyllum	Male	4.13	NA	4.881188119	2.267326733	8.850308793	5.6178806	63.47666201	East
Sympatry	Heterophyllum	Female	4.84	1.77	4.914572864	2.492462312	9.780965127	6.110451756	62.47289175	East
Sympatry	Heterophyllum	Male	4.41	NA	4.571428571	2.226600985	8.308961635	5.319614647	64.02261656	East
Sympatry	Heterophyllum	Female	4.26	1.59	4.752475248	2.207920792	8.456327811	5.106852269	60.3908976	East
Allopatry	Heterophyllum	Male	4.25	NA	4.875	2.197916667	8.809787326	4.702148438	53.37414245	East
Allopatry	Heterophyllum	Female	4.21	1.78	5.15625	2.28125	9.289605035	5.282769097	56.8675318	East
Allopatry	Heterophyllum	Male	4.4	NA	4.71875	2.21875	8.476128472	4.909288194	57.91899227	East
Allopatry	Heterophyllum	Female	4.66	1.9	5.06	2.44	9.991	6.5316	65.37483735	East
Allopatry	Heterophyllum	Male	4.07	NA	4.585858586	2.121212121	7.753698602	5.730027548	73.9005711	East
Allopatry	Heterophyllum	Female	4.33	1.55	4.990196078	2.254901961	9.111880046	6.711553249	73.657173	East
Allopatry	Heterophyllum	Male	4.31	NA	4.740740741	1.989417989	7.567761261	4.14579659	54.78233849	East
Allopatry	Heterophyllum	Male	4.32	NA	4.84	2.3	9.0086	5.9464	66.00803676	East
Allopatry	Heterophyllum	Female	4.49	NA	5.353535354	2.393939394	10.34231201	6.647689011	64.27662408	East
Allopatry	Heterophyllum	Male	4.14	NA	4.726315789	1.947368421	7.308033241	4.983379501	68.19043287	East
Allopatry	Heterophyllum	Female	4.13	1.83	4.592592593	1.989417989	7.116262143	4.419585118	62.1054288	East
Allopatry	Heterophyllum	Male	4.85	NA	4.819148936	2.329787234	8.788592123	5.021502943	57.13660245	East
Allopatry	Heterophyllum	Female	4.74	1.85	5.073684211	2.389473684	9.565761773	5.194903047	54.30725927	East
Allopatry	Heterophyllum	Male	4.56	NA	4.87	2.31	9.0633	6.5184	71.92082354	East
Allopatry	Heterophyllum	Female	4.15	1.46	4.784313725	2.254901961	8.805171088	6.185793925	70.25183115	East
Allopatry	Heterophyllum	Male	4.6	NA	4.871287129	2.386138614	9.421037153	5.885305362	62.46982436	East
Allopatry	Heterophyllum	Female	3.82	1.61	4.356435644	2.108910891	7.220272522	4.726007254	65.45469357	East
Allopatry	Heterophyllum	Male	4.56	NA	5.09375	2.21875	9.117621528	5.039605035	55.27324225	East
Allopatry	Heterophyllum	Female	4.68	2	5.25	2.28125	9.542426215	5.703233507	59.76712189	East
Allopatry	Heterophyllum	Male	4.58	NA	4.696078431	2.284313725	8.678104575	5.693291042	65.60523663	East
Allopatry	Heterophyllum	Female	4.65	1.89	5.135416667	2.260416667	9.154405382	4.757269965	51.96700132	East
Allopatry	Heterophyllum	Male	4.64	NA	4.802083333	2.229166667	8.592664931	4.897569444	56.99709559	East
Allopatry	Heterophyllum	Female	4.78	1.86	5.284210526	2.4	9.928531856	5.673684211	57.14524859	East
Allopatry	Heterophyllum	Female	4.78	1.94	5.270833333	2.354166667	9.797851563	4.906575521	50.07807568	East
Allopatry	Heterophyllum	Female	4.76	1.97	5.26	2.34	9.9652	6.5499	65.72773251	East
Allopatry	Heterophyllum	Male	4.8	NA	5.198019802	2.326732673	9.616214097	6.159200078	64.05015546	East
Allopatry	Heterophyllum	Female	4.56	1.63	5.079207921	2.287128713	9.322811489	6.171747868	66.20050052	East
Allopatry	Heterophyllum	Male	3.74	NA	4.427083333	1.833333333	6.541775174	3.600802951	55.04320855	East
Allopatry	Heterophyllum	Female	3.86	1.71	4.360824742	1.917525773	6.60973536	3.986714847	60.31580132	East
Allopatry	Heterophyllum	Male	4.23	NA	4.627659574	2.095744681	7.612833861	4.330126754	56.87930189	East
Allopatry	Heterophyllum	Male	3.85	NA	4.143589744	1.897435897	6.208652202	3.509165023	56.52056048	East
Allopatry	Heterophyllum	Male	4.33	NA	4.736842105	2.2	8.283213296	4.707922438	56.83690941	East
Allopatry	Heterophyllum	Male	4.33	NA	4.85	2.2	8.441	5.4576	64.65584646	East
Allopatry	Heterophyllum	Female	4.58	1.75	5.216080402	2.331658291	9.74126916	6.820938865	70.02104914	East
Allopatry	Heterophyllum	Male	4.46	NA	5	2.343434343	9.511784512	5.760840731	60.56529901	East
Allopatry	Heterophyllum	Female	4.7	1.73	4.84729064	2.305418719	9.001819991	5.365041617	59.59952124	East
Allopatry	Heterophyllum	Female	4.69	1.72	5.33	2.33	10.0127	6.4782	64.69983121	East
Allopatry	Heterophyllum	Male	4.11	NA	4.47	2.08	7.5817	5.3147	70.0990543	East
Allopatry	Heterophyllum	Female	4.19	1.77	4.83	2.14	8.3619	5.892	70.46245471	East
Allopatry	Heterophyllum	Male	4.07	NA	4.666666667	2.082051282	7.674424721	4.252149901	55.40675759	East
Allopatry	Heterophyllum	Male	4.52	NA	4.434343434	2.363636364	8.628609326	5.815937149	67.40294907	East
Allopatry	Heterophyllum	Female	4.53	1.76	4.824742268	2.134020619	8.223721968	4.54097141	55.21795882	East
Allopatry	Heterophyllum	Male	4.3	NA	4.67	2.13	8.1165	5.4874	67.6079591	East
Allopatry	Heterophyllum	Female	4.56	1.74	4.98	2.35	9.5658	5.8792	61.46062013	East
Allopatry	Heterophyllum	Male	4.29	NA	4.748717949	2.194871795	8.204602235	4.547008547	55.42021924	East
Allopatry	Heterophyllum	Female	4.68	1.83	4.947368421	2.294736842	8.982936288	4.868698061	54.19940546	East
Allopatry	Heterophyllum	Male	4.16	NA	4.435233161	1.968911917	6.945797203	3.993986416	57.50220312	East
Allopatry	Heterophyllum	Female	4.35	1.77	4.86	2.33	9.3239	5.7673	61.85501775	East
Allopatry	Heterophyllum	Male	4.44	NA	4.663366337	2.207920792	8.416233703	5.32261543	63.24224847	East
Allopatry	Heterophyllum	Female	4.79	1.74	4.939393939	2.343434343	9.429752066	5.604019998	59.42913407	East
Allopatry	Heterophyllum	Male	4.43	NA	4.797927461	2.103626943	7.946307283	4.292303149	54.01632477	East
Allopatry	Heterophyllum	Female	4.79	1.83	5.09947644	2.261780105	9.110934459	4.603821167	50.53072424	East
Allopatry	Heterophyllum	Male	4.83	NA	4.969072165	2.226804124	8.941332767	5.099160378	57.02908628	East
Allopatry	Heterophyllum	Female	4.26	1.93	4.54822335	2.263959391	8.55646886	6.113839573	71.45283496	East
Allopatry	Heterophyllum	Male	4.68	NA	4.643564356	2.356435644	9.036368983	6.00990099	66.50791929	East
Allopatry	Heterophyllum	Female	4.65	1.99	4.886597938	2.113402062	8.163354235	4.276331172	52.38448619	East
Allopatry	Heterophyllum	Male	4.35	NA	4.885416667	2.197916667	8.430121528	4.317599826	51.21634145	East
Allopatry	Heterophyllum	Female	4.01	1.47	4.852631579	2.2	8.327202216	4.578725762	54.9851636	East
Allopatry	Heterophyllum	Female	4.43	1.56	5.01	2.41	9.8454	5.7984	58.89450911	East
Allopatry	Heterophyllum	Male	4.11	NA	4.623115578	2.130653266	8.096462211	5.353400167	66.12023903	East
Allopatry	Heterophyllum	Female	4.75	1.83	5.38	2.39	10.5907	6.3714	60.16032935	East
Allopatry	Heterophyllum	Male	4.23	NA	4.416666667	2.041666667	7.195095486	4.08452691	56.76820992	East
Allopatry	Heterophyllum	Female	4.67	NA	4.802083333	2.322916667	8.864583333	5.378038194	60.66882099	East
Allopatry	Heterophyllum	Male	4.75	NA	5.622222222	2.455555556	11.20246914	7.29037037	65.07824554	East
Allopatry	Heterophyllum	Female	4.9	1.86	5.361702128	2.329787234	9.748076053	5.463897691	56.05103676	East
Allopatry	Heterophyllum	Male	4.21	NA	4.795918367	2.142857143	8.279779259	5.321740941	64.27394711	East
Allopatry	Heterophyllum	Female	4.21	1.66	4.62	2.15	8.0955	4.8844	60.33475388	East
Allopatry	Heterophyllum	Female	3.93	1.76	4.348717949	2	6.826035503	4.115502959	60.29126214	East
Allopatry	Heterophyllum	Female	4.13	1.5	4.71	2.17	8.3903	5.6059	66.81405909	East
Allopatry	Heterophyllum	Male	4.8	NA	4.824742268	2.216494845	8.363056648	4.649165692	55.59170394	East
Allopatry	Heterophyllum	Female	4.8	1.65	5.010526316	2.347368421	9.400221607	5.175734072	55.05970272	East
Allopatry	Heterophyllum	Male	4.14	NA	4.710659898	2.050761421	7.832925352	5.132623876	65.52627077	East
Allopatry	Heterophyllum	Female	4.91	2.03	5.222222222	2.464646465	10.5181104	6.639322518	63.1227689	East
Allopatry	Heterophyllum	Male	4.75	NA	4.684210526	2.242105263	8.629695291	5.329529086	61.75802165	East
Allopatry	Heterophyllum	Female	5.08	1.89	5.43877551	2.43877551	10.57788421	5.689920866	53.79072743	East
Allopatry	Heterophyllum	Male	4.41	NA	4.5	2.1	7.795	4.9245	63.17511225	East
Allopatry	Heterophyllum	Female	4.29	1.96	4.9375	2.125	8.287977431	4.374565972	52.78206907	East
Allopatry	Heterophyllum	Male	4.54	NA	4.8	2.328205128	8.880262985	5.687942143	64.0515056	East
Allopatry	Heterophyllum	Female	4.48	1.69	5.16751269	2.487309645	10.46303692	6.496122034	62.08639117	East
Allopatry	Heterophyllum	Male	4.26	NA	4.379487179	2.082051282	7.159184747	3.650966469	50.99695843	East
Allopatry	Heterophyllum	Female	4.28	1.79	4.870466321	2.103626943	8.054766571	3.855137051	47.86156143	East
Allopatry	Heterophyllum	Male	4.5	NA	4.46875	2.208333333	7.906358507	4.616644965	58.39154601	East
Allopatry	Heterophyllum	Male	4.25	NA	4.707070707	2.212121212	8.491378431	4.639526579	54.63808517	East
Allopatry	Heterophyllum	Female	4.82	1.92	5.06	2.25	9.0814	5.9117	65.09679124	East
Allopatry	Heterophyllum	Male	4.77	NA	4.791666667	2.177083333	8.196940104	4.861979167	59.31456257	East
Allopatry	Heterophyllum	Female	4.46	1.66	4.888888889	2.191919192	8.335884093	4.520355066	54.22766218	East
Allopatry	Heterophyllum	Male	4.28	NA	4.59	2.12	7.9115	5.335	67.4334829	East
Allopatry	Heterophyllum	Female	4.44	1.73	5.063157895	2.305263158	9.479445983	5.617506925	59.25986535	East
Allopatry	Heterophyllum	Male	4.57	NA	4.878787879	2.313131313	9.024181206	5.719518416	63.37991543	East
Allopatry	Heterophyllum	Female	4.62	2.11	5.099009901	2.326732673	9.66748358	6.268993236	64.84617413	East
Allopatry	Heterophyllum	Female	4.45	1.89	4.865979381	2.432989691	9.750770539	5.942183016	60.94065072	East
Allopatry	Heterophyllum	Male	4.19	NA	4.575757576	2.04040404	7.61197837	4.869299051	63.96890289	East
Allopatry	Heterophyllum	Female	4.05	1.93	4.48241206	2.08040201	7.430721446	4.42059544	59.49079738	East
Allopatry	Heterophyllum	Female	4.32	1.67	5.070707071	2.363636364	9.4634221	5.992041628	63.31791571	East
Allopatry	Heterophyllum	Male	4.53	NA	5.236180905	2.432160804	10.10216914	5.997525315	59.36868838	East
Allopatry	Heterophyllum	Female	4.43	1.77	5.272727273	2.444444444	10.28425671	6.248342006	60.75637922	East
Sympatry	Heterophyllum	Male	4.18	NA	4.424242424	2.03030303	7.255994286	4.90929497	67.65847348	West
Sympatry	Heterophyllum	Female	4.31	1.69	4.489795918	2.010204082	6.923157018	3.206164098	46.31072342	West
Sympatry	Heterophyllum	Female	4.53	1.65	4.948979592	2.102040816	8.349958351	5.716576426	68.46233462	West
Sympatry	Heterophyllum	Male	4.48	NA	4.857142857	2.081632653	7.894314869	4.659725115	59.02633974	West
Sympatry	Heterophyllum	Male	4.54	NA	4.595959596	2.03030303	7.317212529	3.999693909	54.66144236	West
Sympatry	Heterophyllum	Female	4.46	1.61	4.95959596	2.070707071	8.031221304	3.551984491	44.22720228	West
Sympatry	Heterophyllum	Male	4.07	NA	4.238341969	1.979274611	6.572525437	3.698246933	56.26827874	West
Sympatry	Heterophyllum	Female	4.84	1.64	5.025380711	2.14213198	8.348166662	4.96359092	59.45725715	West
Sympatry	Heterophyllum	Female	5.12	1.69	4.933333333	2.257142857	8.71537415	4.104852608	47.09898321	West
Sympatry	Heterophyllum	Male	4.48	NA	4.324873096	1.888324873	6.374397691	3.079904146	48.31678686	West
Sympatry	Heterophyllum	Female	4.68	1.51	4.934065934	2.087912088	8.090448014	4.398744113	54.36959864	West
Sympatry	Heterophyllum	Male	4.52	NA	4.592592593	2.021164021	7.313233112	3.96909381	54.27276486	West
Sympatry	Heterophyllum	Female	4.47	1.64	4.623655914	2.150537634	7.892357498	4.24049023	53.72906931	West
Sympatry	Heterophyllum	Male	4.48	NA	4.585106383	1.861702128	6.608985967	3.631167949	54.9428909	West
Sympatry	Heterophyllum	Female	4.83	1.57	4.852631579	2.042105263	7.784155125	4.286094183	55.0617776	West
Sympatry	Heterophyllum	Male	4.49	NA	4.347368421	1.936842105	6.509141274	3.39501385	52.15763044	West
Sympatry	Heterophyllum	Male	4.52	NA	4.329896907	1.969072165	6.743330853	3.794239558	56.26654898	West
Sympatry	Heterophyllum	Female	4.65	1.68	5.195652174	2.206521739	9.013114367	4.391422495	48.72258707	West
Sympatry	Heterophyllum	Male	4.37	NA	4.545454545	2.060606061	7.639628609	4.881440669	63.89630856	West
Sympatry	Heterophyllum	Male	4.49	NA	4.94	2.2	8.7188	5.5278	63.40092673	West
Sympatry	Heterophyllum	Female	4.76	1.61	4.752475248	2.297029703	8.810214685	5.22321341	59.28588119	West
Sympatry	Heterophyllum	Female	4.19	1.69	4.68627451	2.058823529	7.708861976	4.919550173	63.81681483	West
Sympatry	Heterophyllum	Male	3.93	NA	4.020408163	1.795918367	5.827988338	4.204914619	72.15036089	West
Sympatry	Heterophyllum	Female	4.56	1.65	4.717171717	2.191919192	8.298438935	4.848076727	58.42155091	West
Sympatry	Heterophyllum	Male	4.33	NA	4.472906404	2.256157635	8.415443228	4.811958553	57.18009643	West
Sympatry	Heterophyllum	Female	4.37	1.68	4.68	2.21	8.331	4.9775	59.74672908	West
Sympatry	Heterophyllum	Male	4.71	NA	4.709677419	2.043010753	7.570239334	4.006012256	52.9179076	West
Sympatry	Heterophyllum	Female	4.87	1.63	4.956989247	2.161290323	8.505954446	4.405133541	51.78882123	West
Sympatry	Heterophyllum	Male	4.91	NA	4.768421053	2.084210526	7.95867036	4.353573407	54.70227073	West
Sympatry	Heterophyllum	Male	4.44	NA	4.620320856	2.064171123	7.564414195	4.856072521	64.19628005	West
Sympatry	Heterophyllum	Female	4.5	1.65	5	2.11827957	8.230778125	4.615562493	56.07686689	West
Sympatry	Heterophyllum	Female	4.97	1.76	5.14893617	2.234042553	9.116229063	4.668515165	51.211034	West
Sympatry	Heterophyllum	Male	4.3	NA	4.731182796	2.225806452	8.373800439	4.822291594	57.5878495	West
Sympatry	Heterophyllum	Female	4.94	1.6	4.898989899	2.101010101	8.210998878	4.844811754	59.00392664	West
Sympatry	Heterophyllum	Male	4.56	NA	4.76344086	2.053763441	7.637067869	3.915597179	51.27094909	West
Sympatry	Heterophyllum	Female	4.72	1.75	4.924731183	2.182795699	8.670482137	4.856168343	56.0080543	West
Sympatry	Heterophyllum	Female	4.57	1.82	4.928571429	2.193877551	8.356934611	4.665451895	55.82731124	West
Sympatry	Heterophyllum	Female	5.08	1.74	5.234042553	2.212765957	9.126754187	4.89757809	53.66177273	West
Sympatry	Heterophyllum	Male	4.06	NA	4.141414141	2.01010101	6.680440771	4.389245995	65.70294005	West
Sympatry	Heterophyllum	Female	4.14	1.61	4.382352941	2.088235294	7.464052288	5.231737793	70.09245905	West
Sympatry	Heterophyllum	Female	3.93	1.84	4.545454545	2.121212121	7.842363024	5.155392307	65.73774118	West
Sympatry	Heterophyllum	Male	4.66	NA	4.855670103	2.051546392	7.950791795	4.592411521	57.76042989	West
Sympatry	Heterophyllum	Female	4.77	1.88	4.958333333	2.15625	8.583550347	4.809678819	56.03367633	West
Sympatry	Heterophyllum	Male	4.06	NA	4.23	1.88	6.4045	4.2311	66.06448591	West
Sympatry	Heterophyllum	Female	3.74	1.58	3.752688172	1.795698925	5.292634987	2.955717424	55.84585809	West
Sympatry	Heterophyllum	Male	4.89	NA	4.451612903	2.075268817	7.380275176	4.067059776	55.10715629	West
Sympatry	Heterophyllum	Female	4.41	1.7	4.808510638	2.031914894	7.752829335	4.164554097	53.7165713	West
Sympatry	Heterophyllum	Male	4.07	NA	4.303921569	1.901960784	6.362745098	4.261245675	66.97181184	West
Sympatry	Heterophyllum	Female	4.15	1.37	4.404255319	1.936170213	6.689678588	3.683680398	55.0651328	West
Sympatry	Heterophyllum	Female	4.36	1.49	4.333333333	1.870967742	6.310440513	3.680887964	58.33012697	West
Sympatry	Heterophyllum	Male	4.96	NA	4.894736842	2.189473684	8.528088643	4.163878116	48.8254554	West
Sympatry	Heterophyllum	Male	4.61	NA	4.71657754	2.010695187	7.513511968	4.4215162	58.84752988	West
Sympatry	Heterophyllum	Female	4.76	1.82	4.984126984	2.275132275	8.760672993	4.684079393	53.4671183	West
Sympatry	Heterophyllum	Male	4.6	NA	3.738738739	1.855855856	5.534291048	3.24746368	58.67894644	West
Sympatry	Heterophyllum	Female	4.63	1.6	4.734042553	2.159574468	8.248415573	4.768899955	57.81595159	West
Sympatry	Heterophyllum	Male	4.83	NA	4.414141414	2.070707071	7.102336496	4.004081216	56.37695733	West
Sympatry	Heterophyllum	Female	4.64	1.71	4.782608696	2.260869565	8.503662571	4.949905482	58.20910038	West
Sympatry	Heterophyllum	Female	4.4	1.67	4.397849462	1.956989247	6.903225806	3.905306972	56.5722038	West
Sympatry	Heterophyllum	Male	4.84	NA	4.638743455	2.115183246	7.702530084	4.067432362	52.80644564	West
Sympatry	Heterophyllum	Female	4.47	1.57	4.690721649	2.144329897	7.939738548	3.970878946	50.01271669	West
Sympatry	Heterophyllum	Female	3.87	1.39	3.989583333	1.947916667	6.16015625	3.319769965	53.89100261	West
Sympatry	Heterophyllum	Female	4.56	1.89	5	2.4	9.4415	5.6481	59.82206217	West
Sympatry	Heterophyllum	Male	4.4	NA	4.47	2.08	7.6364	5.1863	67.91550993	West
Sympatry	Heterophyllum	Female	4.83	1.7	4.898989899	2.303030303	9.231404959	6.149168452	66.611404	West
Sympatry	Heterophyllum	Male	4.17	NA	4.565656566	2.090909091	7.674216917	5.115600449	66.65957588	West
Sympatry	Heterophyllum	Female	4.86	1.82	5.263157895	2.273684211	9.318448753	4.740609418	50.87337543	West
Sympatry	Heterophyllum	Male	4.78	NA	4.701030928	2.154639175	8.003294718	4.467212244	55.81716532	West
Sympatry	Heterophyllum	Female	5.01	1.75	5.25	2.34375	9.698242188	5.151909722	53.12209803	West
Sympatry	Heterophyllum	Female	4.73	1.62	4.646153846	2.297435897	8.672189349	5.612728468	64.72100922	West
Sympatry	Heterophyllum	Female	5.19	1.89	5.138461538	2.235897436	9.050466798	5.175542406	57.18536427	West
Sympatry	Heterophyllum	Male	4.63	NA	4.66	2.1	7.6085	3.924	51.57389761	West
Sympatry	Heterophyllum	Female	4.55	1.83	4.815920398	2.169154229	8.076928789	4.406425584	54.55570674	West
Allopatry	Heterophyllum	Male	4.11	NA	4.534653465	2.089108911	7.460248995	5.093422214	68.27415837	West
Allopatry	Heterophyllum	Female	4.43	1.69	5.223880597	2.268656716	9.560852454	6.366476077	66.58900038	West
Allopatry	Heterophyllum	Male	4.08	NA	4.276595745	1.85106383	6.259732911	3.379923042	53.9946846	West
Allopatry	Heterophyllum	Female	3.99	1.72	4.548387097	1.946236559	6.992947162	3.718348942	53.17284481	West
Allopatry	Heterophyllum	Male	4.91	NA	5.11	2.34	9.657	6.1654	63.84384384	West
Allopatry	Heterophyllum	Female	5.04	1.87	5.227722772	2.386138614	9.98009999	6.749534359	67.62992722	West
Allopatry	Heterophyllum	Male	3.98	NA	4.526315789	2.010526316	7.021385042	4.048199446	57.65528342	West
Allopatry	Heterophyllum	Female	4.16	1.72	4.893617021	2.180851064	8.43809416	4.209370756	49.88532572	West
Allopatry	Heterophyllum	Male	4.54	NA	4.91	2.19	8.7164	5.8689	67.33169657	West
Allopatry	Heterophyllum	Female	4.61	1.64	5.131313131	2.434343434	10.17488011	6.658096113	65.43660503	West
Allopatry	Heterophyllum	Male	4.04	NA	4.468085106	2	7.226007243	3.943300136	54.57094081	West
Allopatry	Heterophyllum	Male	4.36	NA	4.11827957	1.946236559	6.311249855	3.465256099	54.90601986	West
Allopatry	Heterophyllum	Female	4.48	1.94	4.51	2.09	7.4207	4.6177	62.22728314	West
Allopatry	Heterophyllum	Male	4.56	NA	4.819512195	2.195121951	8.536347412	5.819393218	68.17193511	West
Allopatry	Heterophyllum	Female	4.64	1.87	5.18	2.39	9.6611	6.1361	63.51347155	West
Allopatry	Heterophyllum	Male	3.68	NA	4.268817204	1.720430108	5.734420164	3.308359348	57.69300563	West
Allopatry	Heterophyllum	Female	3.88	1.69	4.273684211	1.768421053	5.976398892	3.423047091	57.27608135	West
Allopatry	Heterophyllum	Male	4.3	NA	4.722772277	2.079207921	7.872463484	5.488579551	69.71870447	West
Allopatry	Heterophyllum	Female	4.15	1.77	4.891089109	2.336633663	9.021468483	5.733359475	63.5523971	West
Allopatry	Heterophyllum	Male	4.34	NA	4.557894737	2	7.23767313	4.334404432	59.88671157	West
Allopatry	Heterophyllum	Female	4.53	1.75	4.631578947	2.094736842	7.59933518	4.749141274	62.49416774	West
Allopatry	Heterophyllum	Male	5.21	NA	4.792079208	2.227722772	8.661601804	6.021468483	69.51910997	West
Allopatry	Heterophyllum	Female	5.1	2.15	5.31372549	2.343137255	9.992406767	6.463956171	64.68868133	West
Allopatry	Heterophyllum	Male	4.17	NA	4.375	2.052083333	7.212131076	3.780707465	52.4215024	West
Allopatry	Heterophyllum	Female	4.06	1.62	4.372340426	1.989361702	7.041195111	3.834540516	54.45866015	West
Allopatry	Heterophyllum	Male	4.35	NA	4.71957672	2.148148148	7.952856863	4.328770191	54.43037975	West
Allopatry	Heterophyllum	Female	4.52	1.9	5.042105263	2.126315789	8.422936288	4.407423823	52.32645329	West
Allopatry	Heterophyllum	Male	4.24	NA	4.322916667	1.927083333	6.485568576	3.419921875	52.73125763	West
Allopatry	Heterophyllum	Male	4.8	NA	5.141304348	2.195652174	9.047495274	5.058364839	55.90900781	West
Allopatry	Heterophyllum	Male	4.5	NA	4.852631579	2.168421053	8.20066482	4.415401662	53.84199646	West
Allopatry	Heterophyllum	Male	4.46	NA	4.838709677	2.075268817	7.960573477	4.462249971	56.0543783	West
Allopatry	Heterophyllum	Male	4.76	NA	4.680851064	2.138297872	8.112833861	4.504640109	55.52486573	West
Allopatry	Heterophyllum	Female	4.77	2.1	5.197860963	2.352941176	9.520661157	4.995395922	52.46900231	West
Allopatry	Heterophyllum	Male	4.45	NA	4.670212766	2.14893617	7.972272522	4.392485287	55.0970288	West
Allopatry	Heterophyllum	Female	4.44	1.8	4.755319149	2.170212766	8.0629244	4.2185378	52.32019538	West
Allopatry	Heterophyllum	Female	4.42	1.87	4.914893617	2.234042553	8.754413762	4.551493889	51.99084727	West
Allopatry	Heterophyllum	Female	3.96	1.59	4.436170213	2.021276596	7.003734722	3.851516523	54.99232447	West
Allopatry	Heterophyllum	Female	4.03	1.85	4.085106383	1.829787234	5.905839746	3.012675419	51.01180438	West
Allopatry	Heterophyllum	Female	4.12	1.76	4.755319149	2.212765957	8.375961974	4.92100498	58.75152006	West
Allopatry	Heterophyllum	Male	4.78	NA	5.010526316	2.305263158	9.164099723	4.733185596	51.64921529	West
Allopatry	Heterophyllum	Female	4.68	1.91	4.604166667	2.270833333	8.434787326	4.716037326	55.91175146	West
Allopatry	Heterophyllum	Male	4.65	NA	4.995073892	2.334975369	9.239535053	5.380669271	58.23528176	West
Allopatry	Heterophyllum	Female	4.9	1.87	5.205882353	2.382352941	9.668589004	4.898596694	50.66506283	West
Allopatry	Heterophyllum	Male	4.5	NA	4.900990099	2.108910891	8.220664641	4.791098912	58.28116243	West
Allopatry	Heterophyllum	Female	4.79	1.93	5.523809524	2.264550265	9.832983399	5.551132387	56.45420278	West
Allopatry	Heterophyllum	Male	4.66	NA	5.064676617	2.15920398	8.756317913	5.861142051	66.93614952	West
Allopatry	Heterophyllum	Female	5.07	2	5.14	2.38	9.887	6.6879	67.64337008	West
Allopatry	Heterophyllum	Male	4.3	NA	4.53	2.11	7.8175	5.2732	67.45378957	West
Allopatry	Heterophyllum	Female	4.81	1.73	4.92	2.26	8.9808	5.5578	61.88535542	West
Allopatry	Heterophyllum	Female	5.12	2.03	5.431578947	2.284210526	9.709141274	4.96565097	51.14407989	West
Allopatry	Heterophyllum	Male	4.54	NA	4.726315789	2.042105263	7.56132964	4.073795014	53.87670169	West
Allopatry	Heterophyllum	Female	4.8	1.98	4.666666667	2.1875	8.160264757	4.304470486	52.74915232	West
Allopatry	Heterophyllum	Male	4.47	NA	4.693069307	2.188118812	8.269973532	5.424958337	65.59825514	West
Allopatry	Heterophyllum	Female	4.1	1.64	4.782178218	2.198019802	8.369473581	5.547593373	66.28365953	West
Allopatry	Heterophyllum	Male	4.22	NA	4.486772487	2.137566138	7.342123681	4.0148932	54.68299602	West
Allopatry	Heterophyllum	Male	3.93	NA	4.899470899	2.19047619	8.725847541	4.967050195	56.92341256	West
Allopatry	Heterophyllum	Male	4.63	NA	5	2.170212766	8.554662743	4.3601177	50.9677334	West
Allopatry	Heterophyllum	Female	4.82	1.8	4.968085106	2.244680851	8.961634224	4.805794477	53.62631812	West
Allopatry	Heterophyllum	Male	4.3	NA	4.65	2.13	7.9913	5.511	68.96249672	West
Allopatry	Heterophyllum	Female	4.53	1.81	5.03960396	2.356435644	9.52112538	5.981668464	62.82522523	West
Allopatry	Heterophyllum	Male	4.12	NA	4.643564356	2.059405941	7.744142731	5.586119008	72.13347173	West
Allopatry	Heterophyllum	Female	4.33	1.71	5.272727273	2.383838384	10.04213856	6.864197531	68.35394166	West
Allopatry	Heterophyllum	Male	4.77	NA	4.860103627	2.113989637	8.000859083	4.168380359	52.0991598	West
Allopatry	Heterophyllum	Female	5.01	2.07	5.06185567	2.195876289	8.805824211	4.855244978	55.13674657	West
Allopatry	Heterophyllum	Male	4.42	NA	5.114583333	2.21875	8.879774306	5.027560764	56.61811428	West
Allopatry	Heterophyllum	Female	4.98	1.75	5.708333333	2.458333333	11.23155382	5.941514757	52.90020288	West
Allopatry	Heterophyllum	Male	5.04	NA	5.135416667	2.375	9.495659722	5.097547743	53.68292348	West
Allopatry	Heterophyllum	Female	3.7	1.61	4.072164948	1.773195876	5.663088532	3.34063131	58.98956535	West
Allopatry	Heterophyllum	Male	4.28	NA	4.748768473	2.147783251	8.167633284	5.482103424	67.11985264	West
Allopatry	Heterophyllum	Female	4.34	1.69	5.156862745	2.196078431	9.258266052	6.458573626	69.76007807	West
Allopatry	Heterophyllum	Male	4.43	NA	4.739583333	2.03125	7.600694444	4.058376736	53.39481498	West
Allopatry	Heterophyllum	Male	4.34	NA	6.036809816	2.760736196	13.30889382	8.686815462	65.27075486	West
Allopatry	Heterophyllum	Female	4.9	1.9	5.174757282	2.330097087	9.877462532	6.606183429	66.88138181	West
Allopatry	Heterophyllum	Male	4.63	NA	4.706467662	2.23880597	8.429692334	5.522437563	65.51173334	West
Allopatry	Heterophyllum	Female	4.96	1.86	5.051546392	2.18556701	9.025082368	5.115633967	56.68240753	West
Allopatry	Heterophyllum	Female	4.26	1.61	4.5	2.020833333	7.303819444	3.991970486	54.65593059	West
Allopatry	Heterophyllum	Male	4.34	NA	4.603960396	2.277227723	8.654445643	5.150573473	59.51361515	West
Allopatry	Heterophyllum	Female	4.03	1.71	3.841584158	1.97029703	6.351044015	4.04960298	63.76279192	West
Allopatry	Heterophyllum	Male	4.41	NA	4.581280788	2.098522167	7.772573952	5.416874955	69.6921636	West
Allopatry	Heterophyllum	Female	4.7	1.84	4.700507614	2.091370558	7.855600505	3.90373367	49.6936379	West
Allopatry	Heterophyllum	Male	4.27	NA	4.487309645	2.081218274	7.423432709	4.100389085	55.23575475	West
Allopatry	Heterophyllum	Female	4.58	1.77	5.070707071	2.141414141	8.539638812	4.432812978	51.90867056	West
Allopatry	Heterophyllum	Male	4.42	NA	4.536082474	1.948453608	6.962376448	4.05749814	58.27748859	West
Allopatry	Heterophyllum	Female	4.56	NA	4.806122449	2.255102041	8.594127447	5.267700958	61.29419177	West
Allopatry	Heterophyllum	Male	4.65	NA	4.929292929	2.333333333	9.312519131	5.651362106	60.68564291	West
Allopatry	Heterophyllum	Male	4.78	NA	4.808080808	2.171717172	8.306907458	4.796959494	57.74663457	West
Allopatry	Heterophyllum	Female	5.08	1.97	5.103092784	2.288659794	9.420342226	5.388882984	57.20474751	West
Allopatry	Heterophyllum	Male	4.23	NA	4.72	2.21	8.4663	5.7648	68.09113781	West
Allopatry	Heterophyllum	Female	4.45	1.81	5.161616162	2.383838384	9.849913274	6.416998265	65.14776412	West
Sympatry	Oleraceum	Male	4.33	NA	4.343434343	2.545454545	8.852872156	5.873686359	66.34780504	East
Sympatry	Oleraceum	Male	4.64	NA	4.919191919	2.272727273	9.031731456	6.002040608	66.45503841	East
Sympatry	Oleraceum	Female	4.66	1.53	4.85	2.25	8.9046	5.888	66.12312737	East
Sympatry	Oleraceum	Male	4.52	NA	4.905263158	2.221052632	8.562880886	5.104598338	59.61309524	East
Sympatry	Oleraceum	Female	4.45	1.69	4.916666667	2.229166667	8.642686632	4.957899306	57.36525593	East
Sympatry	Oleraceum	Male	4.84	NA	5.005235602	2.209424084	8.677941942	4.849099531	55.87845094	East
Sympatry	Oleraceum	Female	4.78	1.87	4.990196078	2.333333333	9.600826605	6.043637063	62.94913252	East
Sympatry	Oleraceum	Male	4.74	NA	5.154228856	2.218905473	9.225712235	6.390138858	69.26445022	East
Sympatry	Oleraceum	Female	4.67	1.72	5.26	2.4	10.1858	6.6138	64.9315714	East
Sympatry	Oleraceum	Male	3.86	NA	4.14893617	1.893617021	6.206201901	3.318469896	53.47022138	East
Sympatry	Oleraceum	Male	4.24	NA	4.604166667	2.114583333	7.839409722	4.25922309	54.33091573	East
Sympatry	Oleraceum	Male	4.64	NA	4.747572816	2.165048544	8.502874918	5.078046941	59.72152937	East
Sympatry	Oleraceum	Female	4.21	1.66	4.760416667	2.083333333	7.890190972	4.319986979	54.75136146	East
Sympatry	Oleraceum	Female	4.67	1.77	5.075376884	2.351758794	9.695613747	6.199742431	63.94378523	East
Sympatry	Oleraceum	Male	4.6	NA	4.5625	2.010416667	7.138237847	3.966471354	55.56653391	East
Sympatry	Oleraceum	Female	4.78	1.76	4.742268041	2.18556701	8.12371134	4.597513019	56.59375164	East
Sympatry	Oleraceum	Male	4.54	NA	4.762376238	2.267326733	8.814822076	5.528183511	62.71463523	East
Sympatry	Oleraceum	Female	4.65	1.85	5.154639175	2.24742268	9.121585716	5.218195345	57.20710749	East
Sympatry	Oleraceum	Male	4.33	NA	4.833333333	2.137254902	8.375816993	5.252979623	62.71602672	East
Sympatry	Oleraceum	Female	4.21	1.62	5.00990099	2.316831683	9.469267719	5.809724537	61.35347219	East
Sympatry	Oleraceum	Male	4.63	NA	4.649484536	2.206185567	8.102986502	4.867679881	60.07266431	East
Sympatry	Oleraceum	Female	4.49	1.59	4.770833333	2.1875	8.204969618	4.580946181	55.83136067	East
Sympatry	Oleraceum	Male	4.37	NA	4.770833333	2.104166667	7.819227431	4.40874566	56.38339208	East
Sympatry	Oleraceum	Female	4.72	1.84	4.881188119	2.326732673	9.367905107	6.018527595	64.24624851	East
Sympatry	Oleraceum	Male	4.62	NA	4.603015075	2.120603015	7.926062473	5.180879271	65.36510768	East
Sympatry	Oleraceum	Female	4.83	1.75	4.821782178	2.356435644	9.260954808	5.959219684	64.34778927	East
Sympatry	Oleraceum	Male	4.76	NA	4.74	2.26	8.355	5.1341	61.44943148	East
Sympatry	Oleraceum	Female	4.8	1.65	4.465346535	2.227722772	8.316145476	5.127634546	61.65878844	East
Sympatry	Oleraceum	Female	4.3	1.92	4.148514851	1.95049505	6.669640231	4.759925498	71.36705028	East
Sympatry	Oleraceum	Male	4.49	NA	4.552083333	2.166666667	7.769097222	4.155815972	53.49162011	East
Sympatry	Oleraceum	Female	4.22	1.71	4.855614973	2.160427807	8.4276931	4.420143556	52.44784668	East
Sympatry	Oleraceum	Female	4.74	1.91	4.891089109	2.405940594	9.74688756	6.268699147	64.31488112	East
Sympatry	Oleraceum	Female	4.55	1.69	4.914893617	2.085106383	8.279990946	4.850384789	58.5795905	East
Sympatry	Oleraceum	Male	4.6	NA	4.979591837	2.316326531	9.243440233	6.062057476	65.58226508	East
Sympatry	Oleraceum	Male	4.7	NA	4.861702128	2.255319149	8.676663649	5.041647804	58.10583432	East
Sympatry	Oleraceum	Female	4.8	1.72	4.854166667	2.28125	8.913953993	5.060763889	56.77350245	East
Sympatry	Oleraceum	Male	3.94	NA	4.296296296	1.978835979	6.754010246	4.068307158	60.23543066	East
Sympatry	Oleraceum	Female	4.64	1.77	5.03	2.28	9.0934	5.5369	60.88921635	East
Sympatry	Oleraceum	Male	4.41	NA	4.741116751	2.304568528	8.916282306	5.45131284	61.13885421	East
Sympatry	Oleraceum	Female	4.71	1.77	5.08	2.33	9.6109	6.0327	62.76935563	East
Sympatry	Oleraceum	Male	4.12	NA	3.978723404	2.021276596	6.435943866	3.651539158	56.7366533	East
Sympatry	Oleraceum	Male	4.33	NA	4.473684211	2.105263158	7.473019391	4.033573407	53.97514975	East
Sympatry	Oleraceum	Female	4.35	NA	4.645833333	2.083333333	7.633897569	4.013454861	52.57412514	East
Sympatry	Oleraceum	Male	4.53	NA	4.531914894	2.255319149	8.377772748	4.866568583	58.08904979	East
Sympatry	Oleraceum	Female	4.83	1.82	4.984293194	2.345549738	9.312902607	4.792851073	51.46463219	East
Sympatry	Oleraceum	Male	4	NA	4.285714286	1.894179894	6.520758097	3.783096778	58.01621102	East
Sympatry	Oleraceum	Female	4.18	1.59	4.916666667	2.104166667	8.290690104	4.264431424	51.43638672	East
Sympatry	Oleraceum	Male	4.22	NA	4.752475248	2.148514851	8.499754926	5.65248505	66.50174152	East
Sympatry	Oleraceum	Female	4.38	1.53	4.824120603	2.16080402	8.615641019	5.703593344	66.20045254	East
Sympatry	Oleraceum	Male	4.02	NA	4.4	2.02	7.2262	4.3369	60.01632947	East
Sympatry	Oleraceum	Male	4.51	NA	4.61928934	2.192893401	8.071323662	5.316807957	65.87281318	East
Sympatry	Oleraceum	Female	4.28	2.03	4.891089109	2.217821782	8.934124105	6.105381825	68.33777719	East
Sympatry	Oleraceum	Male	4.29	NA	4.421052632	2.115789474	7.295734072	3.839556787	52.62742239	East
Sympatry	Oleraceum	Female	4.73	1.77	4.553191489	2.308510638	8.483137166	4.253395201	50.13941326	East
Sympatry	Oleraceum	Male	4.36	NA	4.691489362	2.085106383	7.936170213	4.265165233	53.74336889	East
Sympatry	Oleraceum	Female	4.47	1.66	4.968421053	2.189473684	8.732077562	4.691855956	53.73126753	East
Sympatry	Oleraceum	Male	4.74	NA	4.693069307	2.198019802	8.386236643	5.343495736	63.71744518	East
Sympatry	Oleraceum	Female	4.72	1.73	4.99009901	2.534653465	10.37486521	6.6923831	64.5057354	East
Sympatry	Oleraceum	Male	4.38	NA	4.649484536	2.092783505	7.762780317	4.774790095	61.50876232	East
Sympatry	Oleraceum	Female	4.38	1.72	4.527363184	2.009950249	7.276651568	4.495631296	61.78159356	East
Sympatry	Oleraceum	Male	4.87	NA	5.069306931	2.316831683	9.287422802	5.530732281	59.55077527	East
Sympatry	Oleraceum	Female	4.66	1.55	4.942408377	2.12565445	8.325648968	4.480030701	53.80998788	East
Sympatry	Oleraceum	Male	4.5	NA	4.866995074	2.206896552	8.520662962	5.431337815	63.74313641	East
Sympatry	Oleraceum	Male	4.74	NA	4.564356436	2.059405941	7.455151456	4.274678953	57.33859303	East
Sympatry	Oleraceum	Female	4.78	1.62	4.659793814	2.216494845	8.248698055	4.834838984	58.61335876	East
Sympatry	Oleraceum	Male	4.08	NA	4.272727273	1.929292929	6.654218957	3.767982859	56.6254715	East
Sympatry	Oleraceum	Female	4.66	1.63	5.03	2.27	9.5259	6.3081	66.2205146	East
Sympatry	Oleraceum	Female	4.55	1.64	5.02	2.41	9.7293	5.8573	60.20268673	East
Sympatry	Oleraceum	Male	4.53	NA	4.388059701	1.960199005	6.852503651	3.783866736	55.21874819	East
Sympatry	Oleraceum	Female	4.34	1.78	4.653061224	2.102040816	7.864639733	4.451478551	56.60117566	East
Sympatry	Oleraceum	Male	4.19	NA	4.2	2.01	7.0547	4.6216	65.51093597	East
Sympatry	Oleraceum	Female	4.78	1.74	4.89	2.3	9.1652	4.9968	54.51926854	East
Sympatry	Oleraceum	Male	4.39	NA	4.515151515	2.131313131	7.651770228	4.261095807	55.68771251	East
Sympatry	Oleraceum	Female	4.87	1.68	5.101010101	2.252525253	9.216406489	4.485358637	48.66710949	East
Sympatry	Oleraceum	Female	4.57	1.55	4.8125	2.166666667	8.228081597	4.773654514	58.01661611	East
Sympatry	Oleraceum	Male	4.85	NA	4.96	2.28	9.1419	5.7223	62.59420908	East
Sympatry	Oleraceum	Female	4.64	NA	5.485148515	2.495049505	10.97264974	6.748652093	61.50430619	East
Sympatry	Oleraceum	Male	4.48	NA	4.465346535	2.148514851	7.606411136	4.283403588	56.31306948	East
Sympatry	Oleraceum	Female	4.5	1.79	4.804232804	2.253968254	8.734581899	5.442736765	62.31250481	East
Sympatry	Oleraceum	Male	4.24	NA	4.656565657	2.191919192	8.386185083	5.557494133	66.26963367	East
Sympatry	Oleraceum	Female	4.52	1.68	4.849740933	2.238341969	8.587290934	4.659776101	54.26363375	East
Sympatry	Oleraceum	Male	4.57	NA	4.747572816	1.961165049	7.692148176	4.985106985	64.80773473	East
Sympatry	Oleraceum	Female	5.09	1.78	5.492385787	2.456852792	10.94416244	6.364296941	58.15243495	East
Sympatry	Oleraceum	Male	4.65	NA	4.76	2.16	8.5477	5.7348	67.09173228	East
Sympatry	Oleraceum	Female	4.75	1.57	5.191919192	2.313131313	9.70288746	6.347107438	65.41462491	East
Sympatry	Oleraceum	Male	4.64	NA	4.706467662	2.129353234	8.172569986	5.240068315	64.11775395	East
Sympatry	Oleraceum	Male	4.33	NA	4.412371134	2.010309278	7.075884791	3.880965033	54.84777025	East
Sympatry	Oleraceum	Female	3.92	1.64	4.226804124	1.855670103	6.286853013	3.600382612	57.26843947	East
Sympatry	Oleraceum	Female	4.33	1.58	4.693877551	2.244897959	8.443252811	4.549979175	53.88893685	East
Sympatry	Oleraceum	Male	4.23	NA	4.51	2.1	7.7738	4.8648	62.57943348	East
Sympatry	Oleraceum	Female	4.03	1.72	4.58	2.09	7.7127	5.0816	65.88613585	East
Sympatry	Oleraceum	Male	4.02	NA	4.670050761	2.07106599	7.739854158	4.29333402	55.470477	East
Sympatry	Oleraceum	Female	4.17	1.68	4.555555556	2.080808081	7.683501684	4.243138455	55.22401933	East
Sympatry	Oleraceum	Male	4.39	NA	4.82	2.13	8.3438	5.3109	63.65085453	East
Sympatry	Oleraceum	Female	4.4	1.52	4.711340206	2.103092784	7.952492295	4.401424168	55.34647511	East
Sympatry	Oleraceum	Male	4.5	NA	4.85	2.27	9.0945	6.0292	66.29501347	East
Sympatry	Oleraceum	Female	4.81	1.67	5.168316832	2.376237624	9.997745319	6.129497108	61.30879426	East
Sympatry	Oleraceum	Male	4.18	NA	4.858585859	2.181818182	8.601469238	5.744923987	66.7900312	East
Sympatry	Oleraceum	Female	4.72	1.71	5.104477612	2.308457711	9.517091161	6.05143437	63.58491547	East
Allopatry	Oleraceum	Female	4.28	1.54	4.5	2.173469388	7.89879217	4.367867555	55.29791722	West
Allopatry	Oleraceum	Male	4.1	NA	4.523560209	1.916230366	6.825141855	4.027850114	59.01489228	West
Allopatry	Oleraceum	Female	4.25	1.59	4.515789474	2.126315789	7.719778393	4.548254848	58.91690947	West
Allopatry	Oleraceum	Female	4.26	1.54	4.789473684	2.031578947	7.696177285	3.903379501	50.71841976	West
Allopatry	Oleraceum	Male	4.17	NA	4.45026178	1.926701571	6.827992654	4.09374743	59.95535786	West
Allopatry	Oleraceum	Male	4.51	NA	4.396039604	2.108910891	7.618762866	5.172532105	67.89202126	West
Allopatry	Oleraceum	Female	4.41	1.55	4.65	2.32	9.0015	5.6581	62.85730156	West
Allopatry	Oleraceum	Male	4.39	NA	4.770833333	2.166666667	8.205729167	4.839735243	58.97995345	West
Allopatry	Oleraceum	Female	4.34	1.63	4.927083333	2.333333333	9.178602431	5.322048611	57.98321315	West
Allopatry	Oleraceum	Female	4.29	1.59	5.807692308	2.858974359	13.43589744	8.307034845	61.82716774	West
Allopatry	Oleraceum	Female	3.91	1.43	4.525252525	2.151515152	8.120191817	5.546985002	68.31100947	West
Allopatry	Oleraceum	Female	4.53	1.87	4.924623116	2.281407035	9.097447034	6.217418752	68.34245617	West
Allopatry	Oleraceum	Male	4.33	NA	4.71	2.17	8.3366	5.5524	66.60269174	West
Allopatry	Oleraceum	Female	4.22	NA	4.353535354	2.080808081	7.283236404	4.91429446	67.47404844	West
Allopatry	Oleraceum	Female	4.59	1.83	4.958762887	2.237113402	8.826761611	5.038686364	57.08420127	West
Allopatry	Oleraceum	Male	3.98	NA	4.319587629	1.855670103	6.299925603	3.802529493	60.35832377	West
Allopatry	Oleraceum	Male	3.86	NA	4.544554455	2.207920792	7.940790119	5.181942947	65.25727125	West
Allopatry	Oleraceum	Female	4.02	1.66	4.7	2.26	8.5813	5.8161	67.77644413	West
Allopatry	Oleraceum	Male	4.41	NA	4.729166667	2.114583333	7.93359375	4.604709201	58.04064774	West
Allopatry	Oleraceum	Female	4.42	1.64	4.916256158	2.315270936	9.337766022	6.10138562	65.34095634	West
Allopatry	Oleraceum	Male	4.09	NA	4.659574468	2.106382979	7.840425532	4.612607515	58.83108635	West
Allopatry	Oleraceum	Female	4.45	1.65	4.729166667	2.197916667	8.31890191	5.290364583	63.59450611	West
Allopatry	Oleraceum	Male	3.93	NA	4.465346535	1.98019802	7.021566513	4.654151554	66.28366398	West
Allopatry	Oleraceum	Female	4.03	1.61	4.427184466	2.300970874	8.292204732	5.396078801	65.07411449	West
Allopatry	Oleraceum	Female	4.16	1.37	5.021276596	2.223404255	8.86645541	5.167270258	58.27887266	West
Allopatry	Oleraceum	Male	4.49	NA	5.975609756	2.695121951	13.42549078	8.280041642	61.67403321	West
Allopatry	Oleraceum	Female	3.94	1.64	4.525252525	2.171717172	7.978879706	5.590960106	70.07199396	West
Allopatry	Oleraceum	Female	4	1.49	4.585858586	2.181818182	8.147944087	5.412100806	66.42290065	West
Allopatry	Oleraceum	Female	3.44	1.56	3.949748744	1.748743719	5.662887301	3.64909977	64.43885559	West
Allopatry	Oleraceum	Male	4.24	NA	4.512562814	2.231155779	8.100502513	5.323501932	65.71816901	West
Allopatry	Oleraceum	Female	4.32	1.51	5	2.302083333	8.931315104	4.93608941	55.26721823	West
Allopatry	Oleraceum	Female	3.99	1.46	4.346534653	1.97029703	6.873737869	4.58072738	66.64099602	West
Allopatry	Oleraceum	Male	3.98	NA	4.568627451	2.274509804	8.421472511	5.444636678	64.65183697	West
Allopatry	Oleraceum	Female	4.18	1.6	4.865671642	2.248756219	8.769485904	5.677582238	64.74247522	West
Allopatry	Oleraceum	Male	3.5	NA	3.94	1.69	5.4305	3.6159	66.585029	West
Allopatry	Oleraceum	Male	4.17	NA	4.525773196	1.969072165	7.161547455	4.304176852	60.10121247	West
Allopatry	Oleraceum	Female	4.42	1.75	4.989473684	2.094736842	8.335955679	4.99434903	59.91333475	West
Allopatry	Oleraceum	Male	4.03	NA	4.807881773	2.068965517	8.007668228	5.287194545	66.02664339	West
Allopatry	Oleraceum	Male	3.88	NA	4.248756219	2.039800995	7.24279102	5.137100567	70.92708533	West
Allopatry	Oleraceum	Female	4.03	1.33	4.7	2.17	8.2728	5.4871	66.32699932	West
Allopatry	Oleraceum	Male	4.67	NA	4.585365854	2.253658537	8.485996431	5.604759072	66.0471533	East
Allopatry	Oleraceum	Male	4.7	NA	4.530612245	2.224489796	8.016972095	4.655560183	58.07130333	East
Allopatry	Oleraceum	Female	4.85	1.81	4.979166667	2.375	9.510850694	5.585177951	58.72427326	East
Allopatry	Oleraceum	Female	4.94	1.93	5.052083333	2.291666667	9.303710938	5.612521701	60.32562425	East
Allopatry	Oleraceum	Female	4.66	1.74	5.168316832	2.405940594	9.986177826	6.178511911	61.87063778	East
Allopatry	Oleraceum	Female	4.57	1.81	4.926108374	2.443349754	9.727098449	6.088572885	62.59392681	East
Allopatry	Oleraceum	Male	4.98	NA	5	2.287128713	9.293010489	5.678756985	61.10782928	East
Allopatry	Oleraceum	Male	4.59	NA	4.862745098	2.196078431	8.579392541	5.861111111	68.31615505	East
Allopatry	Oleraceum	Female	4.92	1.83	4.98	2.42	9.6138	6.5807	68.45056065	East
Allopatry	Oleraceum	Male	4.24	NA	4.577114428	2.129353234	7.772678894	5.103339026	65.65740198	East
Allopatry	Oleraceum	Female	4.61	1.65	4.782178218	2.356435644	9.222723262	5.476914028	59.38499803	East
Allopatry	Oleraceum	Male	4.72	NA	4.72815534	2.242718447	8.612498822	5.969648412	69.31377914	East
Allopatry	Oleraceum	Female	4.92	1.83	5.166666667	2.431372549	10.21953095	6.227412534	60.93638313	East
Allopatry	Oleraceum	Female	4.5	1.56	5.262626263	2.494949495	10.54973982	6.498316498	61.59693611	East
Allopatry	Oleraceum	Male	4.47	NA	5.128712871	2.178217822	8.94539751	5.535437702	61.88028756	East
Allopatry	Oleraceum	Female	4.52	1.51	5.124378109	2.39800995	9.694512512	5.91203188	60.98328176	East
Allopatry	Oleraceum	Male	4.76	NA	4.916256158	2.167487685	8.744303429	5.433279138	62.13507093	East
Allopatry	Oleraceum	Male	4.78	NA	5.04	2.2	8.9992	5.7912	64.35238688	East
Allopatry	Oleraceum	Female	5.06	1.76	5.227722772	2.435643564	10.3486913	6.445054406	62.27893186	East
Allopatry	Oleraceum	Male	4.63	NA	4.69	2.14	8.1265	4.7932	58.98234172	East
Allopatry	Oleraceum	Female	4.31	1.61	4.537313433	2.228855721	8.388802257	4.977896587	59.33977741	East
Allopatry	Oleraceum	Male	4.32	NA	4.676767677	2.04040404	7.598714417	4.752576268	62.54447801	East
Allopatry	Oleraceum	Female	4.44	1.69	4.744897959	2.142857143	8.256768013	5.052165764	61.18817625	East
Allopatry	Oleraceum	Male	4.72	NA	4.717171717	2.414141414	8.920008162	5.680848893	63.6865885	East
Allopatry	Oleraceum	Female	4.61	1.73	5.16751269	2.355329949	9.894509006	6.073333505	61.38084772	East
Allopatry	Oleraceum	Male	4.58	NA	4.565656566	2.131313131	7.836649321	4.565044383	58.25250303	East
Allopatry	Oleraceum	Male	4.59	NA	4.656565657	2.252525253	8.531986532	5.278951127	61.87247375	East
Allopatry	Oleraceum	Female	5.35	1.93	4.887755102	2.418367347	9.61422324	5.095585173	53.00048736	East
Allopatry	Oleraceum	Male	4.34	NA	4.461538462	1.917948718	6.87042735	3.8660881	56.27143557	East
Allopatry	Oleraceum	Female	4.47	1.71	4.714285714	2.285714286	8.494897959	4.48635985	52.81240424	East
Allopatry	Oleraceum	Male	4.83	NA	5.303030303	2.454545455	10.49046016	6.743597592	64.28314384	East
Allopatry	Oleraceum	Female	5.14	1.78	5.41	2.56	11.6124	6.5639	56.52492164	East
Allopatry	Oleraceum	Male	4.54	NA	4.886597938	2.164948454	8.212456159	5.118397279	62.32480491	East
Allopatry	Oleraceum	Male	4.62	NA	4.867924528	2.198113208	8.745817017	5.394268423	61.67826759	East
Allopatry	Oleraceum	Male	4.78	NA	4.540816327	2.142857143	7.654623074	3.78394419	49.43344896	East
Allopatry	Oleraceum	Female	4.82	1.73	4.936842105	2.242105263	8.976066482	4.722548476	52.61267267	East
Allopatry	Oleraceum	Male	4.62	NA	4.8	2.336842105	8.921551247	5.072022161	56.85134816	East
Allopatry	Oleraceum	Male	5.04	NA	4.936170213	2.276595745	8.934133092	4.928248076	55.16201768	East
Allopatry	Oleraceum	Female	4.75	NA	5.021052632	2.4	9.573185596	5.551246537	57.98745341	East
Allopatry	Oleraceum	Male	4.86	NA	4.574468085	2.138297872	7.897804436	4.73392938	59.93981515	East
Allopatry	Oleraceum	Male	4.93	NA	4.935483871	2.301075269	8.960457856	4.893976182	54.61747894	East
Allopatry	Oleraceum	Female	4.42	1.64	4.723404255	2.276595745	8.503395201	4.022295156	47.3022253	East
Allopatry	Oleraceum	Male	4.93	NA	4.947368421	2.221052632	8.734847645	4.88299169	55.90242541	East
Allopatry	Oleraceum	Female	4.87	1.73	5.125	2.270833333	9.225694444	4.89702691	53.08030674	East
Allopatry	Oleraceum	Male	4.58	NA	4.66	2.32	8.7268	5.7057	65.38135399	East
Allopatry	Oleraceum	Female	4.86	1.75	5.214285714	2.5	10.10370679	6.221261974	61.57405499	East
Allopatry	Oleraceum	Male	4.57	NA	4.683168317	2.386138614	9.284383884	5.996961082	64.59191215	East
Allopatry	Oleraceum	Female	4.64	1.63	5.128712871	2.603960396	10.77619841	6.96519949	64.63503384	East
Allopatry	Oleraceum	Male	4.38	NA	4.522613065	2.140703518	7.971919901	5.355016287	67.17348335	East
Allopatry	Oleraceum	Female	4.68	1.75	5.00990099	2.237623762	9.154690717	5.785021076	63.19187896	East
Allopatry	Oleraceum	Male	4.67	NA	4.95049505	2.376237624	9.594843643	6.257817861	65.22063406	East
Allopatry	Oleraceum	Female	5.03	1.83	5.477386935	2.542713568	11.30274488	7.145072094	63.21537087	East
Allopatry	Oleraceum	Male	4.55	NA	4.366336634	2.02970297	7.051955691	5.279678463	74.86828753	East
Allopatry	Oleraceum	Female	4.57	1.52	4.63	2.27	8.6256	5.6713	65.74962901	East
Allopatry	Oleraceum	Female	4.99	1.98	5.053658537	2.448780488	9.825199286	6.154241523	62.63732006	East
Allopatry	Oleraceum	Male	4.19	NA	4.574257426	2.148514851	8.035584747	5.114694638	63.65055934	East
Allopatry	Oleraceum	Female	4.37	1.51	4.776699029	2.300970874	9.020548591	5.436139127	60.2639526	East
Allopatry	Oleraceum	Male	4.47	NA	4.475247525	2.198019802	8.102048819	5.135280855	63.38249707	East
Allopatry	Oleraceum	Male	4.6	NA	4.473684211	2.2	7.927867036	4.649750693	58.65071489	East
Allopatry	Oleraceum	Female	4.79	1.76	4.895348837	2.302325581	9.109248242	5.017847485	55.0851986	East
Allopatry	Oleraceum	Male	4.71	NA	4.891089109	2.257425743	9.015488678	5.738751103	63.65435428	East
Allopatry	Oleraceum	Female	4.89	1.64	5.063157895	2.294736842	9.228365651	4.997783934	54.15676104	East
Allopatry	Oleraceum	Female	4.35	1.54	4.891089109	2.267326733	9.089893148	5.856386629	64.42745293	East
Allopatry	Oleraceum	Male	5.16	NA	5.082474227	2.319587629	9.153044957	4.744499947	51.8352086	East
Allopatry	Oleraceum	Female	5.03	2.05	5.042553191	2.489361702	10.32627886	5.471140788	52.98269456	East
Allopatry	Oleraceum	Male	4.82	NA	4.916666667	2.15625	8.546766493	4.588975694	53.69253621	East
Allopatry	Oleraceum	Female	4.93	1.68	5.01	2.42	10.0974	6.7348	66.69835799	East
Allopatry	Oleraceum	Male	4.23	NA	4.646464646	2.212121212	8.40057137	5.770125497	68.68729808	East
Allopatry	Oleraceum	Female	4.42	1.53	5.642857143	2.418367347	10.93804665	7.086734694	64.78976478	East
Allopatry	Oleraceum	Female	4.46	1.79	5.06185567	2.257731959	9.094590286	4.786162185	52.62647392	East
Allopatry	Oleraceum	Male	4.51	NA	4.968421053	2.2	8.502936288	4.612520776	54.24621118	East
Allopatry	Oleraceum	Female	4.83	1.72	5.252631579	2.505263158	10.50448753	5.409639889	51.4983703	East
Allopatry	Oleraceum	Male	4.42	NA	4.964467005	2.263959391	9.096549769	5.883686774	64.68042195	East
Allopatry	Oleraceum	Female	4.9	1.68	5.070707071	2.393939394	9.903275176	6.437098255	64.99969092	East
Allopatry	Oleraceum	Male	4.88	NA	5.052631579	2.273684211	9.07933518	5.346149584	58.88261066	East
Allopatry	Oleraceum	Female	4.59	1.7	5.117021277	2.255319149	9.049796288	5.037460389	55.66379871	East
Sympatry	Oleraceum	Male	4.43	NA	4.78	2.27	8.7686	5.2916	60.34714778	West
Sympatry	Oleraceum	Female	4.62	1.61	5.245098039	2.352941176	9.836889658	5.944252211	60.42816802	West
Sympatry	Oleraceum	Male	3.81	NA	4.104166667	1.885416667	6.128255208	3.626627604	59.17879528	West
Sympatry	Oleraceum	Male	4.03	NA	4.45	2.04	7.2573	4.0282	55.50549102	West
Sympatry	Oleraceum	Female	4.19	1.49	4.591836735	2.020408163	7.494169096	3.741461891	49.92497291	West
Sympatry	Oleraceum	Male	3.81	NA	4.137254902	1.931372549	6.382641292	3.940984237	61.7453505	West
Sympatry	Oleraceum	Female	4.59	1.91	4.472361809	2.150753769	7.904244842	4.646650337	58.78677128	West
Sympatry	Oleraceum	Female	4.05	1.72	4.343434343	1.95959596	6.853178247	4.143760841	60.46480467	West
Sympatry	Oleraceum	Male	4.62	NA	4.78125	2.135416667	8.036349826	4.359592014	54.24841014	West
Sympatry	Oleraceum	Female	4.47	1.67	5.092783505	2.18556701	8.603996174	4.249548305	49.39040208	West
Sympatry	Oleraceum	Male	4.68	NA	4.806122449	2.132653061	8.09454394	4.29123282	53.01389246	West
Sympatry	Oleraceum	Female	3.73	1.62	4.222222222	1.96969697	6.904805632	4.078563412	59.06847534	West
Sympatry	Oleraceum	Male	4.62	NA	4.79	2.27	8.9508	5.1063	57.04853197	West
Sympatry	Oleraceum	Female	4.67	1.7	4.808080808	2.383838384	9.341291705	5.50372411	58.91823405	West
Sympatry	Oleraceum	Male	4.14	NA	4.707070707	2.02020202	7.405876951	3.569431691	48.19728594	West
Sympatry	Oleraceum	Female	4.3	1.76	5.005128205	2.143589744	8.485996055	4.444234057	52.37138961	West
Sympatry	Oleraceum	Male	4.17	NA	4.781725888	1.989847716	7.542271123	3.577623747	47.43430313	West
Sympatry	Oleraceum	Female	4.48	1.74	4.95	2.29	9.0061	5.3061	58.91673421	West
Sympatry	Oleraceum	Male	3.89	NA	4.721311475	2.25136612	8.48589089	5.245543313	61.8148805	West
Sympatry	Oleraceum	Female	4.62	1.58	4.91	2.28	9.0565	5.164	57.01982002	West
Sympatry	Oleraceum	Male	4.27	NA	4.762886598	2.06185567	7.6445956	3.717398236	48.62779446	West
Sympatry	Oleraceum	Female	3.79	1.48	4.505154639	2.020618557	7.051758954	3.183441386	45.14393369	West
Sympatry	Oleraceum	Male	4.01	NA	4.535353535	2.050505051	7.686766656	4.747780839	61.76564284	West
Sympatry	Oleraceum	Female	3.8	1.55	4.623762376	2.138613861	8.102048819	4.716792471	58.21728031	West
Sympatry	Oleraceum	Male	4.36	NA	4.785714286	1.969387755	7.211162016	3.711370262	51.46702091	West
Sympatry	Oleraceum	Female	4.75	1.59	5.051020408	2.214285714	8.898583923	4.32455227	48.59820739	West
Sympatry	Oleraceum	Male	3.73	NA	3.98989899	1.848484848	5.969901031	3.802469136	63.69400626	West
Sympatry	Oleraceum	Female	4.07	1.47	4.393939394	2.03030303	7.195286195	4.619834711	64.2064066	West
Sympatry	Oleraceum	Male	4.12	NA	4.303030303	2.04040404	7.268952148	4.956126926	68.18213719	West
Sympatry	Oleraceum	Female	3.85	1.56	4.574257426	2.118811881	7.973139888	4.913537888	61.62613421	West
Sympatry	Oleraceum	Female	4.39	NA	4.9	2.31	9.3196	5.525	59.28366024	West
Sympatry	Oleraceum	Male	4.25	NA	4.39	2.02	7.1726	4.3512	60.66419429	West
Sympatry	Oleraceum	Male	4.1	NA	4.97979798	2.111111111	8.283440465	4.956841139	59.84036657	West
Sympatry	Oleraceum	Female	4.42	1.56	4.979591837	2.326530612	9.353810912	5.876613911	62.82587884	West
Sympatry	Oleraceum	Male	3.89	NA	4.31	1.89	6.4181	3.9597	61.69582898	West
Sympatry	Oleraceum	Male	4.14	NA	4.542713568	2.120603015	7.65940254	4.623923638	60.369247	West
Sympatry	Oleraceum	Female	3.85	NA	4.87	2.17	8.4463	4.8826	57.80756071	West
Sympatry	Oleraceum	Male	3.76	NA	4.3	1.92	6.7613	4.4831	66.30529632	West
Sympatry	Oleraceum	Female	4.12	1.47	4.693069307	2.178217822	8.215273012	5.198313891	63.27621593	West
Sympatry	Oleraceum	Female	3.96	1.38	4.572916667	2	7.017578125	3.761176215	53.59649937	West
Sympatry	Oleraceum	Male	4.5	NA	4.78125	1.979166667	7.441948785	3.819986979	51.33046585	West
Sympatry	Oleraceum	Female	4.85	1.74	4.757894737	2.2	8.324542936	4.106814404	49.33381251	West
Sympatry	Oleraceum	Male	4.37	NA	4.7960199	2.139303483	8.243360313	4.424741962	53.67643526	West
Sympatry	Oleraceum	Female	3.99	1.39	4.264705882	2.029411765	7.075932334	4.144655902	58.57399006	West
Sympatry	Oleraceum	Female	4.32	1.47	4.5	2.104166667	7.435546875	3.899305556	52.4414091	West
Sympatry	Oleraceum	Male	3.97	NA	4.25	1.833333333	6.147243924	3.23969184	52.7015339	West
Sympatry	Oleraceum	Female	4.31	1.4	4.8	2.094736842	7.864376731	4.105484765	52.20356177	West
Sympatry	Oleraceum	Female	3.43	1.37	4.029126214	1.796116505	5.770195117	3.66368178	63.49320439	West
Sympatry	Oleraceum	Female	4.02	1.45	4.475247525	1.95049505	7.035486717	4.175669052	59.35153061	West
Sympatry	Oleraceum	Male	3.92	NA	4.381443299	1.835051546	6.288553513	3.65416091	58.10813095	West
Sympatry	Oleraceum	Female	4.67	1.64	4.572916667	2.177083333	7.956597222	4.282986111	53.82936941	West
Sympatry	Oleraceum	Female	4.56	1.53	4.896907216	2.288659794	8.96949729	4.666064406	52.02147072	West
Sympatry	Oleraceum	Male	4.03	NA	4	1.960199005	6.377762927	4.079106953	63.95827188	West
Sympatry	Oleraceum	Male	4.25	NA	4.489583333	1.979166667	6.931423611	3.829969618	55.25516594	West
Sympatry	Oleraceum	Female	4.74	1.76	4.513089005	2.240837696	8.10701461	4.542200049	56.02802348	West
Sympatry	Oleraceum	Male	4.21	NA	4.55721393	1.990049751	7.278235687	4.449592832	61.13559691	West
Sympatry	Oleraceum	Female	4.17	1.49	4.41	2.06	7.4561	4.8796	65.44440123	West
Sympatry	Oleraceum	Male	4.03	NA	4.097087379	1.980582524	6.966537845	4.340182864	62.30042756	West
Sympatry	Oleraceum	Male	4.54	NA	4.49	1.98	6.9565	3.7259	53.55997987	West
Sympatry	Oleraceum	Female	4.15	1.44	4.291666667	1.947916667	6.573133681	3.789279514	57.64799102	West
Sympatry	Oleraceum	Female	4.69	1.63	4.523076923	2.143589744	7.723760684	4.356923077	56.40934844	West
Sympatry	Oleraceum	Male	3.9	NA	4.254901961	1.980392157	6.937524029	4.392925798	63.32123362	West
Sympatry	Oleraceum	Female	4.29	1.62	5	2.195876289	8.678180466	4.48602402	51.69314048	West
Sympatry	Oleraceum	Male	4.43	NA	4.83	2.36	9.2021	5.1505	55.97091968	West
Sympatry	Oleraceum	Female	4.1	1.32	4.851485149	2.207920792	8.565140672	5.329771591	62.22631705	West
Sympatry	Oleraceum	Male	4.66	NA	4.551020408	2.06122449	7.387234486	3.847147022	52.07831198	West
Sympatry	Oleraceum	Female	4.73	1.58	4.745945946	2.12972973	7.918305332	4.108458729	51.88558102	West
Sympatry	Oleraceum	Male	4.2	NA	4.489361702	2.010638298	7.224875509	3.678134903	50.90931875	West
Sympatry	Oleraceum	Female	4.07	1.38	4.163265306	1.816326531	6.002082466	3.357975843	55.94684616	West
Sympatry	Oleraceum	Male	4.61	NA	4.305263158	2.073684211	7.009418283	3.724875346	53.14100537	West
Sympatry	Oleraceum	Female	3.93	1.36	4.259067358	1.865284974	6.1282719	2.833579425	46.23782155	West
